eduardo  28911  4.6  2.6 3111080 216320 ?      Sl   12:59  16:03 /snap/spotify/34/usr/share/spotify/spotify
eduardo  29020  0.0  0.6 498684 54076 ?        S    12:59   0:00 /snap/spotify/34/usr/share/spotify/spotify --type=zygote --no-sandbox --log-file=/snap/spotify/34/usr/share/spotify/debug.log --log-severity=disable --product-version=Spotify/1.1.0.237 --lang=en
eduardo  29034  1.2  1.0 929220 88716 ?        Sl   12:59   4:16 /snap/spotify/34/usr/share/spotify/spotify --type=gpu-process --disable-features=ExtendedMouseButtons --no-sandbox --log-file=/snap/spotify/34/usr/share/spotify/debug.log --log-severity=disable --product-version=Spotify/1.1.0.237 --lang=en --gpu-preferences=KAAAAAAAAACAAABAAQAAAAAAAAAAAGAAAAAAAAAAAAAIAAAAAAAAAAgAAAAAAAAA --log-file=/snap/spotify/34/usr/share/spotify/debug.log --log-severity=disable --product-version=Spotify/1.1.0.237 --lang=en --service-request-channel-token=12181276967664444191
eduardo  29043  2.4  3.7 1806288 302700 ?      Sl   12:59   8:22 /snap/spotify/34/usr/share/spotify/spotify --type=renderer --no-sandbox --disable-features=ExtendedMouseButtons --service-pipe-token=3836801430602649432 --lang=en-US --log-file=/snap/spotify/34/usr/share/spotify/debug.log --log-severity=disable --product-version=Spotify/1.1.0.237 --disable-spell-checking --num-raster-threads=2 --enable-main-frame-before-activation --service-request-channel-token=3836801430602649432 --renderer-client-id=3 --shared-files=v8_context_snapshot_data:100,v8_natives_data:101
eduardo  32424  0.0  0.0  15444   928 pts/8    S+   18:47   0:00 grep spotify
